^C:\USERS\JOHAN\ONEDRIVE\DOKUMENTE\PROJECTE\G-NTHERS-RITTER\GÜNTHERS RITTER\GÜNTHERS RITTER\DEBUG\DRACHE.OBJ|C:\USERS\JOHAN\ONEDRIVE\DOKUMENTE\PROJECTE\G-NTHERS-RITTER\GÜNTHERS RITTER\GÜNTHERS RITTER\DEBUG\EINHORN.OBJ|C:\USERS\JOHAN\ONEDRIVE\DOKUMENTE\PROJECTE\G-NTHERS-RITTER\GÜNTHERS RITTER\GÜNTHERS RITTER\DEBUG\GÜNTHERS RITTER.OBJ|C:\USERS\JOHAN\ONEDRIVE\DOKUMENTE\PROJECTE\G-NTHERS-RITTER\GÜNTHERS RITTER\GÜNTHERS RITTER\DEBUG\MENSCH.OBJ|C:\USERS\JOHAN\ONEDRIVE\DOKUMENTE\PROJECTE\G-NTHERS-RITTER\GÜNTHERS RITTER\GÜNTHERS RITTER\DEBUG\RITTER.OBJ|C:\USERS\JOHAN\ONEDRIVE\DOKUMENTE\PROJECTE\G-NTHERS-RITTER\GÜNTHERS RITTER\GÜNTHERS RITTER\DEBUG\TIER.OBJ|C:\USERS\JOHAN\ONEDRIVE\DOKUMENTE\PROJECTE\G-NTHERS-RITTER\GÜNTHERS RITTER\GÜNTHERS RITTER\DEBUG\TURM.OBJ
C:\USERS\JOHAN\ONEDRIVE\DOKUMENTE\PROJECTE\G-NTHERS-RITTER\GüNTHERS RITTER\DEBUG\GüNTHERS RITTER.EXE
C:\USERS\JOHAN\ONEDRIVE\DOKUMENTE\PROJECTE\G-NTHERS-RITTER\GüNTHERS RITTER\DEBUG\GüNTHERS RITTER.ILK
C:\USERS\JOHAN\ONEDRIVE\DOKUMENTE\PROJECTE\G-NTHERS-RITTER\GÜNTHERS RITTER\DEBUG\GÜNTHERS RITTER.PDB
